{
  "tests": {
    "glean/glsl1-Swizzled swizzled swizzle": {
      "command": "bin/glean -o -v -v -v -t +glsl1 --quick",
      "result": "skip"
    },
    "glx/GLX_OML_sync_control/waitformsc": {
      "command": "bin/glx-oml-sync-control-waitformsc -fbo -auto",
      "result": "skip"
    },
    "glx/glx-multithread-shader-compile": {
      "command": "bin/glx-multithread-shader-compile -fbo -auto",
      "crbug": "410498",
      "result": "skip"
    },
    "glx/glx-swap-event_interval": {
      "command": "bin/glx-swap-event --interval -auto",
      "result": "skip"
    },
    "shaders/glsl-fs-lots-of-tex": {
      "command": "bin/shader_runner tests/shaders/glsl-fs-lots-of-tex.shader_test -auto",
      "pass rate": "0.67",
      "result": "flaky"
    },
    "spec/!OpenGL 1.1/dlist-fdo31590": {
      "command": "bin/dlist-fdo31590 -auto",
      "result": "skip"
    },
    "spec/EXT_framebuffer_object/fbo-generatemipmap-filtering": {
      "command": "bin/fbo-generatemipmap-filtering -fbo -auto",
      "comment": "Regression tracked at crbug.com/384409",
      "crbug": "384409",
      "result": "skip"
    }
  }
}